<?xml version="1.0" encoding="UTF-8" standalone="no"?>
<!-- Yellow check by Gregory Maxwell. Copyright 2005. GFDL-1.2 -->
<svg version="1.0" x="0.0000000" y="0.0000000" width="600.00000" height="600.00000" id="Yes_check" sodipodi:version="0.32" inkscape:version="1.2.1 (9c6d41e410, 2022-07-14)" sodipodi:docname="Handwritten-style-question-mark-dark-yellow.svg" inkscape:output_extension="org.inkscape.output.svg.inkscape" xmlns:inkscape="http://www.inkscape.org/namespaces/inkscape" xmlns:sodipodi="http://sodipodi.sourceforge.net/DTD/sodipodi-0.dtd" xmlns="http://www.w3.org/2000/svg" xmlns:svg="http://www.w3.org/2000/svg" xmlns:rdf="http://www.w3.org/1999/02/22-rdf-syntax-ns#" xmlns:cc="http://creativecommons.org/ns#" xmlns:dc="http://purl.org/dc/elements/1.1/">
  <metadata id="metadata1375">
    <rdf:RDF>
      <cc:Work rdf:about="">
        <dc:format>image/svg+xml</dc:format>
        <dc:type rdf:resource="http://purl.org/dc/dcmitype/StillImage"/>
      </cc:Work>
    </rdf:RDF>
  </metadata>
  <defs id="defs1373">
    <linearGradient id="linearGradient2250">
      <stop style="stop-color:#f2c500;stop-opacity:1" offset="0" id="stop2252"/>
      <stop style="stop-color:#f2c500;stop-opacity:1" offset="1" id="stop2254"/>
    </linearGradient>
  </defs>
  <sodipodi:namedview inkscape:window-height="1014" inkscape:window-width="1920" inkscape:pageshadow="2" inkscape:pageopacity="0.0" borderopacity="1.0" bordercolor="#666666" pagecolor="#ffffff" id="base" inkscape:zoom="0.31166668" inkscape:cx="-6.4171121" inkscape:cy="8.0213902" inkscape:window-x="-8" inkscape:window-y="-8" inkscape:current-layer="Yes_check" inkscape:showpageshadow="2" inkscape:pagecheckerboard="0" inkscape:deskcolor="#d1d1d1" showgrid="false" inkscape:window-maximized="1"/>
  <path style="opacity:1;fill:#000000;fill-opacity:1;stroke-width:0;stroke-linecap:round;stroke-linejoin:round;stroke-dasharray:none;paint-order:markers stroke fill" d="m 202.86453,162.21032 c 55.84844,-36.68813 120.75037,-48.7548 153.38613,-6.9043 45.56681,58.43263 -10.37008,142.48328 -48.88119,221.58711 42.85648,-24.95007 89.90856,-56.84495 125.9428,-96.3891 C 479.51224,229.80394 505.90998,153.08588 482.38988,93.329966 461.13327,39.324764 392.69225,14.011394 337.85742,7.9758943 279.78253,1.5837664 217.1831,23.501577 170.57454,63.112825 137.68788,91.062206 85.236487,140.65794 108.42101,176.96462 c 17.85652,27.96309 54.93621,11.19896 94.44352,-14.7543 z" id="path2497" sodipodi:nodetypes="sacsaasas"/>
  <path id="path2647" style="opacity:1;fill:#000000;fill-opacity:1;stroke-width:0;stroke-linecap:round;stroke-linejoin:round;stroke-dasharray:none;paint-order:markers stroke fill" d="m 370.248,560.8186 c -17.56295,31.71583 -56.4196,34.32001 -83.68663,12.50884 -36.52624,-29.21768 -89.32575,-92.47701 -71.7628,-124.19281 17.56296,-31.71583 80.79244,-21.23113 120.6615,2.76994 39.8691,24.00107 52.35091,77.19818 34.78793,108.91403 z" sodipodi:nodetypes="sssss"/>
<script xmlns=""/></svg>